%YAML 1.1
%TAG !u! tag:unity3d.com,2011:
--- !u!1001 &100100000
Prefab:
  m_ObjectHideFlags: 1
  serializedVersion: 2
  m_Modification:
    m_TransformParent: {fileID: 0}
    m_Modifications: []
    m_RemovedComponents: []
  m_ParentPrefab: {fileID: 0}
  m_RootGameObject: {fileID: 1209129368671188}
  m_IsPrefabParent: 1
--- !u!1 &1209129368671188
GameObject:
  m_ObjectHideFlags: 0
  m_PrefabParentObject: {fileID: 0}
  m_PrefabInternal: {fileID: 100100000}
  serializedVersion: 5
  m_Component:
  - component: {fileID: 4356482704496718}
  - component: {fileID: 114718295166880704}
  m_Layer: 0
  m_Name: DibujarElipse
  m_TagString: Untagged
  m_Icon: {fileID: 0}
  m_NavMeshLayer: 0
  m_StaticEditorFlags: 0
  m_IsActive: 1
--- !u!4 &4356482704496718
Transform:
  m_ObjectHideFlags: 1
  m_PrefabParentObject: {fileID: 0}
  m_PrefabInternal: {fileID: 100100000}
  m_GameObject: {fileID: 1209129368671188}
  m_LocalRotation: {x: 0, y: 0, z: 0, w: 1}
  m_LocalPosition: {x: 0, y: 0, z: 0}
  m_LocalScale: {x: 1, y: 1, z: 1}
  m_Children: []
  m_Father: {fileID: 0}
  m_RootOrder: 0
  m_LocalEulerAnglesHint: {x: 0, y: 0, z: 0}
--- !u!114 &114718295166880704
MonoBehaviour:
  m_ObjectHideFlags: 1
  m_PrefabParentObject: {fileID: 0}
  m_PrefabInternal: {fileID: 100100000}
  m_GameObject: {fileID: 1209129368671188}
  m_Enabled: 1
  m_EditorHideFlags: 0
  m_Script: {fileID: 11500000, guid: 3c8e1098134757c4ba8b2ddeb7e9c5c2, type: 3}
  m_Name: 
  m_EditorClassIdentifier: 
  prefabPlanetaFoco: {fileID: 1401562005772052, guid: b11a5b49d9b45f84e97464f224bb4ab4,
    type: 2}
  prefabObjetoOrbita: {fileID: 1836272221095596, guid: 82a833f27ce3b2e4ebee91052fbb12b7,
    type: 2}
  prefabSol: {fileID: 1340210896367644, guid: 27b230a39661c3445a3a121cc3d0d30f, type: 2}
